4700941482870118|2017/09/12|660|1|9528
6533363051201804|2017/09/12|515|1|14514
2499130228808802|2017/09/12|643|3|2635
6881070099730086|2017/09/12|214|1|29064
6258777196124100|2017/09/12|989|3|30968
4105982070047766|2017/09/12|828|1|72791
8286788313077299|2017/09/12|684|2|56797
9032633370863248|2017/09/12|132|1|65630
4749521181918276|2017/09/12|456|3|57393
9616770032473116|2017/09/12|924|2|93132
4572867357992850|2017/09/12|428|2|60107
3055740614343329|2017/09/12|980|3|22741
6442539096043169|2017/09/12|576|1|44453
1659881242196346|2017/09/12|130|1|96086
3327284960590006|2017/09/12|504|3|38791
5546922768285792|2017/09/12|733|3|21902
6319938795303797|2017/09/12|847|2|38978
4083643010081190|2017/09/12|622|1|74023
6358715118470256|2017/09/12|117|2|78707
5401538238201126|2017/09/12|958|1|2085
1176062911231660|2017/09/12|152|1|90926
8073557096628193|2017/09/12|681|2|55749
3949879459737750|2017/09/12|492|1|91044
2802451327523192|2017/09/12|446|2|87121
6880292240071427|2017/09/12|567|1|53702
9461669895044062|2017/09/12|671|1|75904
7765967301101497|2017/09/12|134|2|80232
9098728194069436|2017/09/12|563|1|13219
4541594807270074|2017/09/12|573|3|71182
1188488503600077|2017/09/12|752|1|79288
4300499208647646|2017/09/12|732|3|14896
3967817162639722|2017/09/12|366|2|256
5154076047643504|2017/09/12|821|2|80330
6629756167973448|2017/09/12|581|1|84016
3166889626962411|2017/09/12|956|2|70258
8368930376579775|2017/09/12|712|2|84099
6799852542079490|2017/09/12|467|1|18131
5192777321541759|2017/09/12|748|3|87195
2744164794189581|2017/09/12|145|1|8654
1315860423530780|2017/09/12|100|1|82171
7638894555787397|2017/09/12|860|1|78093
3185621340063675|2017/09/12|132|1|20329
9041730445011644|2017/09/12|876|3|22169
5424212915268362|2017/09/12|925|1|79621
9725053453318676|2017/09/12|134|3|36637
1467413028604494|2017/09/12|588|2|74743
7160788017755727|2017/09/12|357|2|4959
4521054539857972|2017/09/12|386|1|49263
3153308921857390|2017/09/12|178|2|91296
6799051927433826|2017/09/12|245|3|39609
